0:0:0:0:0:0:0:1 - - [05/Mar/2018:09:31:10 +0100] "GET /hapi HTTP/1.1" 302 -
127.0.0.1 - - [05/Mar/2018:09:31:13 +0100] "GET /hapi/baseDstu3/metadata HTTP/1.1" 200 33923
0:0:0:0:0:0:0:1 - - [05/Mar/2018:09:31:14 +0100] "GET /hapi/css/tester.css HTTP/1.1" 200 5197
0:0:0:0:0:0:0:1 - - [05/Mar/2018:09:31:14 +0100] "GET /hapi/css/bootstrap.min.css HTTP/1.1" 200 99961
0:0:0:0:0:0:0:1 - - [05/Mar/2018:09:31:14 +0100] "GET /hapi/js/bootstrap.min.js HTTP/1.1" 200 29110
0:0:0:0:0:0:0:1 - - [05/Mar/2018:09:31:14 +0100] "GET /hapi/js/jquery-2.1.0.min.js HTTP/1.1" 200 83615
0:0:0:0:0:0:0:1 - - [05/Mar/2018:09:31:15 +0100] "GET /hapi/fa/css/font-awesome.min.css HTTP/1.1" 200 20766
0:0:0:0:0:0:0:1 - - [05/Mar/2018:09:31:15 +0100] "GET /hapi/css/select2.css HTTP/1.1" 200 17686
0:0:0:0:0:0:0:1 - - [05/Mar/2018:09:31:15 +0100] "GET /hapi/js/bootstrap-datetimepicker.min.js HTTP/1.1" 200 105978
0:0:0:0:0:0:0:1 - - [05/Mar/2018:09:31:15 +0100] "GET /hapi/js/select2.min.js HTTP/1.1" 200 64569
0:0:0:0:0:0:0:1 - - [05/Mar/2018:09:31:15 +0100] "GET /hapi/js/RestfulTester.js HTTP/1.1" 200 21710
0:0:0:0:0:0:0:1 - - [05/Mar/2018:09:31:15 +0100] "GET /hapi/css/hapi-narrative.css HTTP/1.1" 200 20
0:0:0:0:0:0:0:1 - - [05/Mar/2018:09:31:15 +0100] "GET /hapi/js/moment.min.js HTTP/1.1" 200 27524
0:0:0:0:0:0:0:1 - - [05/Mar/2018:09:31:15 +0100] "GET /hapi/css/bootstrap-datetimepicker.min.css HTTP/1.1" 200 9020
0:0:0:0:0:0:0:1 - - [05/Mar/2018:09:31:15 +0100] "GET /hapi/fonts/glyphicons-halflings-regular.woff HTTP/1.1" 200 23320
0:0:0:0:0:0:0:1 - - [05/Mar/2018:09:31:15 +0100] "GET /hapi/fa/fonts/fontawesome-webfont.woff?v=4.1.0 HTTP/1.1" 200 83760
0:0:0:0:0:0:0:1 - - [05/Mar/2018:09:31:15 +0100] "GET /hapi/ HTTP/1.1" 200 318826
0:0:0:0:0:0:0:1 - - [05/Mar/2018:09:31:15 +0100] "GET /hapi/img/hapi_fhir_banner.png HTTP/1.1" 200 14880
0:0:0:0:0:0:0:1 - - [05/Mar/2018:09:31:15 +0100] "GET /hapi/img/hapi_fhir_banner_right.png HTTP/1.1" 200 5130
0:0:0:0:0:0:0:1 - - [05/Mar/2018:09:31:15 +0100] "GET /favicon.ico HTTP/1.1" 200 21630
127.0.0.1 - - [05/Mar/2018:09:32:10 +0100] "GET /hapi/baseDstu3/metadata HTTP/1.1" 200 33923
0:0:0:0:0:0:0:1 - - [05/Mar/2018:09:32:11 +0100] "GET /hapi/resource?serverId=home&pretty=false&resource=Observation HTTP/1.1" 200 340826
0:0:0:0:0:0:0:1 - - [05/Mar/2018:09:32:11 +0100] "GET /hapi/css/select2.png HTTP/1.1" 200 613
127.0.0.1 - - [05/Mar/2018:09:32:13 +0100] "GET /hapi/baseDstu3/metadata?_pretty=true HTTP/1.1" 200 33923
127.0.0.1 - - [05/Mar/2018:09:32:14 +0100] "GET /hapi/baseDstu3/Observation?_pretty=true HTTP/1.1" 200 634
0:0:0:0:0:0:0:1 - - [05/Mar/2018:09:32:14 +0100] "GET /hapi/js/ClientCodeGeneratorHapi.js HTTP/1.1" 200 4473
0:0:0:0:0:0:0:1 - - [05/Mar/2018:09:32:15 +0100] "GET /hapi/search?serverId=home&pretty=true&resource=Observation&param.0.qualifier=&param.0.0=&param.0.name=_language&param.0.type=string&sort_by=&sort_direction=&resource-search-limit= HTTP/1.1" 200 333833
127.0.0.1 - - [05/Mar/2018:09:32:18 +0100] "GET /hapi/baseDstu3/metadata?_pretty=true HTTP/1.1" 200 33923
127.0.0.1 - - [05/Mar/2018:09:32:18 +0100] "GET /hapi/baseDstu3/Observation/4955/_history/1?_pretty=true HTTP/1.1" 200 354
0:0:0:0:0:0:0:1 - - [05/Mar/2018:09:32:18 +0100] "GET /hapi/read?serverId=home&pretty=true&resource=Observation&action=read&id=4955&vid=1 HTTP/1.1" 200 319483
127.0.0.1 - - [05/Mar/2018:09:38:50 +0100] "GET /hapi/baseDstu3/metadata?_format=json&_pretty=true HTTP/1.1" 200 33923
127.0.0.1 - - [05/Mar/2018:09:38:50 +0100] "GET /hapi/baseDstu3/Observation/4955/_history/1?_format=json&_pretty=true HTTP/1.1" 200 354
0:0:0:0:0:0:0:1 - - [05/Mar/2018:09:38:50 +0100] "GET /hapi/read?serverId=home&pretty=true&resource=Observation&action=read&id=4955&vid=1&encoding=json HTTP/1.1" 200 319591
127.0.0.1 - - [05/Mar/2018:09:38:51 +0100] "GET /hapi/baseDstu3/metadata?_format=xml&_pretty=true HTTP/1.1" 200 36224
127.0.0.1 - - [05/Mar/2018:09:38:52 +0100] "GET /hapi/baseDstu3/Observation/4955/_history/1?_format=xml&_pretty=true HTTP/1.1" 200 365
0:0:0:0:0:0:0:1 - - [05/Mar/2018:09:38:52 +0100] "GET /hapi/read?serverId=home&pretty=true&resource=Observation&action=read&id=4955&vid=1&encoding=xml HTTP/1.1" 200 320981
127.0.0.1 - - [05/Mar/2018:09:55:17 +0100] "GET /hapi/baseDstu3/metadata?_format=xml&_pretty=true HTTP/1.1" 200 36224
0:0:0:0:0:0:0:1 - - [05/Mar/2018:09:55:18 +0100] "GET /hapi/resource?serverId=home&encoding=xml&pretty=true&_summary=count&resource=Observation HTTP/1.1" 200 340822
127.0.0.1 - - [05/Mar/2018:09:55:23 +0100] "GET /hapi/baseDstu3/metadata?_format=xml&_pretty=true HTTP/1.1" 200 36224
127.0.0.1 - - [05/Mar/2018:09:55:24 +0100] "GET /hapi/baseDstu3/Observation?_format=xml&_pretty=true HTTP/1.1" 200 671
0:0:0:0:0:0:0:1 - - [05/Mar/2018:09:55:24 +0100] "GET /hapi/search?serverId=home&encoding=xml&pretty=true&resource=Observation&param.0.qualifier=&param.0.0=&param.0.name=_language&param.0.type=string&sort_by=&sort_direction=&resource-search-limit= HTTP/1.1" 200 340459
127.0.0.1 - - [05/Mar/2018:09:55:27 +0100] "GET /hapi/baseDstu3/metadata?_format=xml&_pretty=true HTTP/1.1" 200 36224
0:0:0:0:0:0:0:1 - - [05/Mar/2018:09:55:27 +0100] "GET /hapi/resource?serverId=home&encoding=xml&pretty=true&resource=Observation HTTP/1.1" 200 340822
127.0.0.1 - - [05/Mar/2018:09:55:32 +0100] "GET /hapi/baseDstu3/metadata?_format=xml&_pretty=true HTTP/1.1" 200 36223
127.0.0.1 - - [05/Mar/2018:09:55:32 +0100] "GET /hapi/baseDstu3/Observation?_format=xml&_pretty=true HTTP/1.1" 200 671
0:0:0:0:0:0:0:1 - - [05/Mar/2018:09:55:32 +0100] "GET /hapi/search?serverId=home&encoding=xml&pretty=true&resource=Observation&param.0.qualifier=&param.0.0=&param.0.name=_language&param.0.type=string&sort_by=&sort_direction=&resource-search-limit= HTTP/1.1" 200 340635
0:0:0:0:0:0:0:1 - - [05/Mar/2018:09:56:02 +0100] "GET /hapi/baseDstu3/Observation?_format=xml&_pretty=true HTTP/1.1" 200 671
